Showwcase_analysis
…
Most of the time (in minutes) is spent on Saturday and Tuesday which maybe due to bugs in the system

top_users <- showwcase_sessions %>% 
  select(session_projects_added,session_likes_given,session_comments_given,session_duration,customer_id,sessionminute,inactiveminute, Dayofmonth) %>% 
  group_by(customer_id, Dayofmonth) %>% 
  summarise(total_projects = sum(session_projects_added), total_comments = sum(session_comments_given), total_likes = sum(session_likes_given), total_minutes = sum(sessionminute),total_inactive_minute = sum(inactiveminute)) %>%
  arrange(desc(total_minutes))

top_users %>% top_n(10)  # highest values  

## Selecting by total_inactive_minute

## # A tibble: 169 x 7
## # Groups:   customer_id [48]
##    customer_id Dayofmonth total_projects total_comments total_likes
##          <dbl> <chr>               <dbl>          <dbl>       <dbl>
##  1       40235 Saturday                7              9          38
##  2       87265 Sunday                 10             13          48
##  3       29375 Saturday                4             13          32
##  4       23404 Friday                  2             12          58
##  5       23404 Thursday                5             12          30
##  6       87323 Tuesday                 9              6          15
##  7       29375 Sunday                  2              9          16
##  8       73245 Wednesday               9             12          60
##  9       38459 Monday                  3             13          24
## 10       29375 Tuesday                 3              4          45
## # ... with 159 more rows, and 2 more variables: total_minutes <dbl>,
## #   total_inactive_minute <dbl>
…
